id,id_calon,judul,deskripsi,tanggal_mulai,waktu_mulai,tanggal_selesai,waktu_selesai
0001,"jw,ps",Debat Capres di SCTV,Dua orang capres akan berdebat dalam acara yang diselenggarakan oleh salah satu Televisi Swasta yaitu SCTV,2014-06-09,,2014-06-09,
0002,"jw,ps",Debat Capres di TV One,Dua orang capres akan berdebat dalam acara yang diselenggarakan oleh salah satu Televisi Swasta yaitu TV One,2014-06-22,,2014-06-22,
0003,"jk,hr",Debat Cawapres di Metro TV,Dua orang cawapres akan berdebat dalam acara yang diselenggarakan oleh salah satu Televisi Swasta yaitu Metro TV,2014-06-15,,2014-06-15,
0004,"jk,hr",Debat Cawapres di RCTI,Dua orang cawapres akan berdebat dalam acara yang diselenggarakan oleh salah satu Televisi Swasta yaitu RCTI,2014-06-27,,2014-06-27,
0005,"jw,ps,jk,hr",Debat Pasangan Capres dan Cawapres di Kompas TV dan TVRI,Dua pasangan Capres dan Cawapres berdebat yang disiarkan langsung oleh Televisi Swasta dan Negeri yaitu Kompas TV dan TVRI,2014-07-05,,2014-07-05,
0006,jw,Kunjungan Jokowi ke Markas SLank,"Jokowi datang ke markas Slank, Gang Potlot, sekitar pukul 16.40 WIB. Jokowi datang seorang diri tanpa sang calon wakil presiden, Jusuf Kalla.",2014-05-27,,2014-05-27,
0007,"jw,jk",Kunjungan Jokowi ke Jogja,Jokowi bertemu dengan Sri Sultan Hamengkubuwono X bersama dengan JK. Setelah bertemu Sri Sultan pasangan capres dan cawapres ini berpisah,2014-06-02,,2014-06-02,
0008,jw,Kunjungan Jokowi ke Jawa Timur,Jokowi mengadakan kunjungan ke Jawa Timur untuk mengadakan pertemuan dengan para Kiai dan Tokoh NU,2014-05-03,,2014-05-03,
0009,jw,Kunjungan Jokowi ke Sidarjo,"Jokowi mengadakan pertemuan dengan para Korban Lumpur Lapindo, Sidoarjo.",2014-05-29,,2014-05-29,
0010,jw,Kunjungan Jokowi ke Kalsel,Jokowi mengunjungi Kalimantan Selatan,2014-05-23,,2014-05-24,
0011,jw,Kunjungan Jokowi ke Blitar,Jokowi berkunjung ke Blitar bersama dengan Ketum PDIP Ibu Megawati Soekarnoputri,2014-03-12,,2014-03-12,
0012,jw,Deklarasi Pasangan Tersebut di Gedung Joeang,Jokowi dan Jusuf Kalla Mendeklarasikan Diri Mereka Sebagai Salah Satu Kandidat Capres dan Cawapres,2014-05-19,,2014-05-19,
0013,jw,Kunjungan Jokowi Ke Jayapura,Kampanye Janji-Janji,2014-06-05,,,
0014,jk,"JK Hadiri 1 tahun Taufiq Kiemas,Jokowi belum terlihat","Cawapres nomor urut 2 Jusuf Kalla baru tiba di lokasi. dengan menggunakan koko putih dan celana hitam, JK langsung menuju ke dalam rumah untuk turut serta mengikuti tahlilan dan memanjatkan doa bagi almarhum Taufiq Kiemas.",2014-06-08,,2014-06-08,
0015,ps,Kunjungan Prabowo ke Jawa Pos,Prabowo mengadakan kunjungan ke Redaksi Jawa Pos yan berlokasi di Surabaya,2014-05-29,,2014-05-29,
0016,ps,Kunjungan Prabowo ke Ical,Prabowo mengadakan pertemuan dengan Ketum Golkar Ical yang berlokasi di rumah ketum Golkar tersebut,2014-04-29,,2014-04-29,
0017,ps,Kunjungan Prabowo ke Rachmawati,"Capres Prabowo Subianto mengadakn kunjungan ke kediaman pribadi Ibu Rachmawati Soekarnoputri, yang merupakan adik dari Ketum PDIP Ibu Megawati Soekarnoputri",2014-05-16,,2014-05-16,
0018,ps,Kunjungan Prabowo ke Rembang,"Capres Prabowo Subianto mengadakan kunjungan ke Rembang, tujuannya untuk menemui Ketua Majelis Syariah PPP KH Maimun Zubair",2014-04-20,,2014-04-20,
0019,hr,Kunjungan Hatta Rajasa ke Palembang,Hatta Rajasa mengadakan kunjungan ke Palembang untuk melantik tim Pemenangan Capres Cawapres Prabowo Hatta,2014-06-02,,2014-06-02,
0020,ps,Deklarasi Dukungan dari 2500 Kiai di Pasuruan,"Calon presiden Prabowo Subianto dijadwalkan akan menghadiri acara deklarasi dukungan dari ribuan kiai sepuh di Pondok Pesantren Sidogiri, Kabupaten Pasuruan, Jawa Timur, Jumat (6/6/2014). Acara ini bagian dari rangkaian kampanye yang akan dilakukan Prabowo di Jawa Timur",2014-06-06,,2014-06-06,
0021,hr,Janji Hatta Rajasa untuk Indonesia Timur,Halaqoh dan Silaturrahim Nasional Nahdlatul Watha,2014-06-04,,2014-06-04,
0022,hr,Hatta Rajasa Janji Bangun Kalimantan,"Hatta Rajasa, mulai melakukan kampanye di wilayah Kalimantan, Rabu 4 Juni 2014. Selain mengunjungi masyarakat, Hatta juga menghadiri deklarasi tim kampanye dan relawan di Kalimatan Selatan.",,,2014-06-04,
0023,hr,Hatta Rajasa Janji Lindungi Pasar Tradisional,"Hatta menceritakan saat dirinya mengunjungi pasar tradisional, banyak masukan yang didapat dari para pedagang, seperti ketika menyambangi Pasar Santa, Jakarta Selatan.",2014-05-31,,2014-05-31,
0024,hr,,"Cawapres Koalisi Merah Putih, Hatta Rajasa mendatangi Pondok Pesantren Al Mubarok, Serang, Banten, Kamis (5/6). Kedatangan Hatta disambut oleh pimpinan ponpes Al Mubarok, KH Mahmudi",2014-06-05,,2014-06-05,
0025,ps,Prabowo gandeng para pendaki untuk deklarasi di puncak gunung,Tim pemenangan kampanye pasangan Prabowo-Hatta terus melakukan safari politik guna mendulang suara yang besar dalam Pilpres 9 Juli nanti. Tim Prabowo-Hatta akan menggandeng kelompok-kelompok pecinta alam guna meraih suara dalam pilpres mendatang.,2014-06-06,,2014-06-06,
0026,"ps,hr,jw,jk","Fokus Debat,Prabowo-Hatta dan Jokowi-JK Hari Ini Absen Blusukan","Hari ini Prabowo Subianto-Hatta Rajasa dan Jokowi-Jusuf Kalla akan mengikuti debat kandidat Capres-Cawapres. Tema debat kali ini adalah pembangunan Demokrasi,pemerintahan yang bersih dan kepastian hukum. debat dijadwalkan akan dimulai pukul 19.30 WIB di Balai Sarbini,Jakarta Selatan.demi mempersiapkan debat kedua pasangan itu memilih rehat sejenak.kedua pasangan itu hari ini tidak melaksanakan aktivitas blusukan.",2014-06-09,19.30 WIB,2014-06-09,21.30 WIB
0027,hr,Ini Janji Hatta Saat Kampanye di Banten,"Hatta Rajasa dalam berkampanye di Stadion Maulana Yusuf Ciceri Kota Serang, Banten, Kamis (5/6/2014),",2014-06-05,,2014-06-05,
0028,hr,Hatta Rajasa datangi pesantren di Bekasi,"Hatta yang didampingi sekjen Golkar Idrus Marham dan Bupati Bekasi Neneng Hasanah Yasin,menyambangi pesantren perguruan islam Yapink dan bertemu dengan sejumlah guru disana",2014-06-07,,2014-06-07,
0029,jk,Kampanye Terbuka Riau,Kampanye Terbuka Riau,2014-06-07,,2014-06-07,
0030,"jk,jw","Kampanye Terbuka Banten, Nusa Tenggara Timur, Kalimantan Selatan, Kalimantan Timur, Maluku, dan Papua Barat","Kampanye Terbuka Banten, Nusa Tenggara Timur, Kalimantan Selatan, Kalimantan Timur, Maluku, dan Papua Barat",2014-06-08,,2014-06-08,
0031,jw,Kampanye Terbuka Sumatera Utara,Kampanye Terbuka Sumatera Utara,2014-06-09,,2014-06-10,
0032,jk,"Kampanye Terbuka Maluku, Maluku Utara dan Papua Barat","Kampanye Terbuka Maluku, Maluku Utara dan Papua Barat",2014-06-09,,2014-06-11,
0033,jw,Kampanye Terbuka Sumatera Selatan dan Kepulauan Riau,Kampanye Terbuka Sumatera Selatan dan Kepulauan Riau,2014-06-11,,2014-06-11,
0034,jw,"Kampanye Terbuka Maluku, Maluku Utara",Kampanye Terbuka Lampung,2014-06-12,,2014-06-12,
0035,jk,Kampanye Terbuka Sulawesi Tengah,Kampanye Terbuka Sulawesi Tengah,2014-06-12,,2014-06-12,
0036,jw,Kampanye Terbuka Banten,Kampanye Terbuka Banten,2014-06-13,,2014-06-13,
0037,jw,Kampanye Terbuka Jawa Barat,Kampanye Terbuka Jawa Barat,2014-06-14,,2014-06-15,
0038,jk,Kampanye Terbuka Sumatera Selatan,Kampanye Terbuka Sumatera Selatan,2014-06-16,,2014-06-17,
0039,"jk,jw",Kampanye Terbuka Jawa Timur,Kampanye Terbuka Jawa Timur,2014-06-17,,2014-06-17,
0040,jw,Kampanye Terbuka Jawa Tengah dan Nusa Tenggara Timur,Kampanye Terbuka Jawa Tengah dan Nusa Tenggara Timur,2014-06-18,,2014-06-19,
0041,jk,Kampanye Terbuka Kalimantan Selatan,Kampanye Terbuka Kalimantan Selatan,2014-06-19,,2014-06-19,
0042,jk,Kampanye Terbuka Banten,Kampanye Terbuka Banten,2014-06-20,,2014-06-20,
0043,jk,Kampanye Terbuka Jawa Barat,Kampanye Terbuka Jawa Barat,2014-06-21,,2014-06-22,
0044,jw,Kampanye Terbuka Nusa Tenggara Timur,Kampanye Terbuka Nusa Tenggara Timur,2014-06-23,,2014-06-23,
0045,jw,Kampanye Terbuka Sulawesi Tenggara,Kampanye Terbuka Sulawesi Tenggara,2014-06-24,,2014-06-24,
0046,jk,Kampanye Terbuka Jawa Timur,Kampanye Terbuka Jawa Timur,2014-06-25,,2014-06-25,
0047,jw,Kampanye Terbuka Sulawesi Barat,Kampanye Terbuka Sulawesi Barat,2014-06-25,,2014-06-25,
0048,jw,Kampanye Terbuka Jawa Barat dan Banten,Kampanye Terbuka Jawa Barat dan Banten,2014-06-26,,2014-06-26,
0049,jk,Kampanye Terbuka Jawa Tengah,Kampanye Terbuka Jawa Tengah,2014-06-26,,2014-06-26,
0050,"jk,jw","Kampanye Terbuka Aceh, Sumatera Barat, Sumatera Selatan, Sulawesi Selatan, Maluku Utara, dan Papua","Kampanye Terbuka Aceh, Sumatera Barat, Sumatera Selatan, Sulawesi Selatan, Maluku Utara, dan Papua",2014-06-27,,2014-06-27,
0051,"jk,jw","Kampanye Terbuka Lampung, Jawa Tengah, Bali, NTT, Kalimantan Timur, Kalimantan Utara","Kampanye Terbuka Lampung, Jawa Tengah, Bali, NTT, Kalimantan Timur, Kalimantan Utara",2014-06-28,,2014-06-28,
0052,"jk,jw","Kampanye Terbuka Jakarta, Kalimantan Tengah, Sulawesi Utara, Papua Barat","Kampanye Terbuka Jakarta, Kalimantan Tengah, Sulawesi, Papua Barat",2014-06-29,,2014-06-29,
0053,"jk,jw",Kampanye Terbuka Jawa Barat dan Banten,Kampanye Terbuka Jawa Barat dan Banten,2014-06-30,,2014-06-30,
0054,"jk,jw","Kampanye Terbuka Sumatra Utara, Sulawesi Selatan, Gorontalo, Maluku","Kampanye Terbuka Sumatera Utara, Sulawesi Selatan, Gorontalo, Maluku",2014-07-01,,2014-07-01,
0055,"jk,jw","Kampanye terbuka Bengkulu, Babel, Kepri, Jawa Barat, Jawa Timur, Banten, NTB, Kalimantan Barat, Kalimantan Selatan, Papua","Kampanye terbuka Bengkulu, Babel, Kepri, Jawa Barat, Jawa Timur, Banten, NTB, Kalimantan Barat, Kalimantan Selatan, Papua",2014-07-02,,2014-07-02,
0056,"jk,jw","Kampanye Terbuka Riau, Lampung, Kalimantan Utara, Sulawesi Tengah, Sulawesi Tenggara, Maluku Utara","Kampanye Terbuka Riau, Lampung, Kalimantan Utara, Sulawesi Tengah, Sulawesi Tenggara, Maluku Utara",2014-07-03,,2014-07-03,
0057,"jk,jw","Kampanye Terbuka Aceh, Sumatera Barat, Sumatera Selatan, Jawa Tengah, Bali, NTT, dan Kalimantan Timur","Kampanye Terbuka Aceh, Sumatera Barat, Sumatera Selatan, Jawa Tengah, Bali, NTT, dan Kalimantan Timur",2014-07-04,,2014-07-04,
0058,"jk,jw",Kampanye Terbuka Sulawesi Utara dan Sulawesi Barat,Kampanye Terbuka Sulawesi Utara dan Sulawesi Barat,2014-07-05,,2014-07-05,
0059,"ps,hr","Kampanye berlokasi di Cibubur, Jakarta","Kampanye berlokasi di Cibubur, Jakarta",2014-06-07,,2014-06-07,
0060,"ps,hr","Haul Soeharto di Astana Giribangun, Surakarta, Jateng","Haul Soeharto di Astana Giribangun, Surakarta, Jateng",2014-06-08,,2014-06-08,
0061,"ps,hr",Debat Capres I,Debat Capres I,2014-06-09,,2014-06-09,
0062,"ps,hr",Kampanye Terbuka di Aceh dan Sumut serta Jakarta (Rakernas Dekopin),Kampanye Terbuka di Aceh dan Sumut serta Jakarta (Rakernas Dekopin),2014-06-10,,2014-06-10,
0063,"ps,hr",Kampanye Terbuka di Kallimantan Tengah dan Kalimantan Barat,Kampanye Terbuka di Kallimantan Tengah dan Kalimantan Barat,2014-06-11,,2014-06-11,
0064,"ps,hr",Kampanye di Jakarta,Kampanye di Jakarta,2014-06-12,,2014-06-12,
0065,"ps,hr",Kampanye Dialogis di Bandung,Kampanye Dialogis di Bandung,2014-06-13,,2014-06-13,
0066,"ps,hr","Kampanye Terbuka di GBK, Jakarta dan Sampang, Madura serta Haul Sunan Ampel Di Surabaya","Kampanye Terbuka di GBK, Jakarta dan Sampang, Madura serta Haul Sunan Ampel Di Surabaya",2014-06-14,,2014-06-14,
0067,"ps,hr","Banten dan Debat Capres II, Jakarta","Banten dan Debat Capres II, Jakarta",2014-06-15,,2014-06-15,
0068,"ps,hr",Kampanye Terbuka dan Kunjungan Kerakyatan di Sulawesi Utara,Kampanye Terbuka dan Kunjungan Kerakyatan di Sulawesi Utara,2014-06-16,,2014-06-16,
0069,"ps,hr",Kampanye Dialogis dan Kunjungan Kerakyatan di Makassar,Kampanye Dialogis dan Kunjungan Kerakyatan di Makassar,2014-06-17,,2014-06-17,
0070,"ps,hr",Kampanye di Jakarta,Kampanye di Jakarta,2014-06-18,,2014-06-18,
0071,"ps,hr",Kunjungan ke Pesantren di Jawa Timur,Kunjungan ke Pesantren di Jawa Timur,2014-06-19,,2014-06-19,
0072,"ps,hr",Kunjungan ke Pesantren di Jawa Barat,Kunjungan ke Pesantren di Jawa Barat,2014-06-20,,2014-06-20,
0073,"ps,hr",Penutupan Majelis Talim Tahunan Kiai Jabodetabek di Jakarta,Penutupan Majelis Talim Tahunan Kiai Jabodetabek di Jakarta,2014-06-21,,2014-06-21,
0074,"ps,hr",Debat Capres III di Jakarta,Debat Capres III di Jakarta,2014-06-22,,2014-06-22,
0075,"ps,hr","Kampanye Terbuka di Pekalongan, Jawa Tengah","Kampanye Terbuka di Pekalongan, Jawa Tengah",2014-06-23,,2014-06-23,
0076,"ps,hr","Kampanye Terbuka di Tabanan, Bali","Kampanye Terbuka di Tabanan, Bali",2014-06-24,,2014-06-24,
0077,"ps,hr",Kampanye Terbuka di NTT dan Jogja,Kampanye Terbuka di NTT dan Jogja,2014-06-25,,2014-06-25,
0078,"ps,hr",Kampanye di Jakarta,Kampanye di Jakarta,2014-06-26,,2014-06-26,
0079,"ps,hr",Kampanye Religius di Kalimantan Selatan,Kampanye Religius di Kalimantan Selatan,2014-06-27,,2014-06-27,
0080,"ps,hr",Kampanye Terbuka di Kalimantan Timur,Kampanye Terbuka di Kalimantan Timur,2014-06-28,,2014-06-28,
0081,"ps,hr",Debat Cawapres di Jakarta,Debat Cawapres di Jakarta,2014-06-29,,2014-06-29,
0082,"ps,hr",Kampanye Jakarta,Kampanye Jakarta,2014-06-30,,2014-06-30,
0083,"ps,hr",Kampanye Religius di Cirebon dan Indramayu,Kampanye Religius di Cirebon dan Indramayu,2014-07-01,,2014-07-01,
0084,"ps,hr","Kampanye Religius di Banyumas, Kebumen, dan Purworejo","Kampanye Religius di Banyumas, Kebumen, dan Purworejo",2014-07-02,,2014-07-02,
0085,"ps,hr",Kampanye Religius di Bojonegoro dan Tuban,Kampanye Religius di Bojonegoro dan Tuban,2014-07-03,,2014-07-03,
0086,"ps,hr",Kampanye di Jakarta,Kampanye di Jakarta,2014-07-04,,2014-07-04,
0087,"ps,hr",Debat Capres dan Cawapres,Debat Capres dan Cawapres,2014-07-05,,2014-07-05,
